IBM|Educathon
…
.pull-right[

```
# A tibble: 8,250 × 6
   country     Lat  Long date       cumulate value
   <chr>     <dbl> <dbl> <date>        <int> <int>
 1 Argentina -38.4 -63.6 2020-01-22        0    NA
 2 Argentina -38.4 -63.6 2020-01-23        0     0
 3 Argentina -38.4 -63.6 2020-01-24        0     0
 4 Argentina -38.4 -63.6 2020-01-25        0     0
 5 Argentina -38.4 -63.6 2020-01-26        0     0
 6 Argentina -38.4 -63.6 2020-01-27        0     0
 7 Argentina -38.4 -63.6 2020-01-28        0     0
 8 Argentina -38.4 -63.6 2020-01-29        0     0
 9 Argentina -38.4 -63.6 2020-01-30        0     0
10 Argentina -38.4 -63.6 2020-01-31        0     0
# … with 8,240 more rows
```
…
